%YAML 1.1
%TAG !u! tag:unity3d.com,2011:
--- !u!114 &11400000
MonoBehaviour:
  m_ObjectHideFlags: 0
  m_CorrespondingSourceObject: {fileID: 0}
  m_PrefabInstance: {fileID: 0}
  m_PrefabAsset: {fileID: 0}
  m_GameObject: {fileID: 0}
  m_Enabled: 1
  m_EditorHideFlags: 0
  m_Script: {fileID: 11500000, guid: c15b9b52257a949aea86e4e035486536, type: 3}
  m_Name: 1159DA90-1C9C-4570-B53D-815F505A961B
  m_EditorClassIdentifier: 
  objectName: Play_RoomTone
  id: 2748311587
  guid: 1159DA90-1C9C-4570-B53D-815F505A961B
